[gd_scene load_steps=5 format=2]

[ext_resource path="res://Scenes/Area2D.tscn" type="PackedScene" id=1]
[ext_resource path="res://Scenes/Player.tscn" type="PackedScene" id=2]
[ext_resource path="res://dirt.tres" type="TileSet" id=3]
[ext_resource path="res://Scenes/Death.tscn" type="PackedScene" id=4]

[node name="Level 3" type="Node2D"]

[node name="Player" parent="." instance=ExtResource( 2 )]
position = Vector2( 112, 88 )

[node name="Area2D" parent="." instance=ExtResource( 1 )]
position = Vector2( 800, 424 )
sceneName = "Level 4"

[node name="TileMap" type="TileMap" parent="."]
scale = Vector2( 0.5, 0.5 )
tile_set = ExtResource( 3 )
cell_size = Vector2( 128, 128 )
format = 1
tile_data = PoolIntArray( 131073, 0, 0, 131074, 0, 0, 131075, 0, 0, 131076, 0, 0, 262151, 0, 0, 327688, 0, 0, 458762, 0, 0, 458763, 0, 0, 458764, 0, 0 )

[node name="Death" parent="." instance=ExtResource( 4 )]
position = Vector2( 424, 568 )
sceneName = "Level 3"
