[gd_scene load_steps=4 format=2]

[ext_resource path="res://Scenes/Player.tscn" type="PackedScene" id=1]
[ext_resource path="res://Scenes/[bukan] Rektorat.tscn" type="PackedScene" id=2]
[ext_resource path="res://dirt.tres" type="TileSet" id=3]

[node name="Level 4" type="Node2D"]

[node name="[bukan] Rektorat" parent="." instance=ExtResource( 2 )]
position = Vector2( 1352, -496 )

[node name="Player" parent="." instance=ExtResource( 1 )]
position = Vector2( 344, 456 )

[node name="TileMap" type="TileMap" parent="."]
scale = Vector2( 0.5, 0.5 )
tile_set = ExtResource( 3 )
cell_size = Vector2( 128, 128 )
format = 1
tile_data = PoolIntArray( -262126, 0, 0, -262125, 0, 0, -262124, 0, 0, -262123, 0, 0, -262122, 0, 0, -196591, 0, 0, -196590, 0, 0, -196589, 0, 0, -196588, 0, 0, -196587, 0, 0, -196586, 0, 0, -131059, 0, 0, -131056, 0, 0, -131055, 0, 0, -131054, 0, 0, -131053, 0, 0, -131052, 0, 0, -131051, 0, 0, -131050, 0, 0, -65524, 0, 0, 11, 0, 0, 65546, 0, 0, 131080, 0, 0, 131081, 0, 0, 196612, 0, 0, 196613, 0, 0, 262150, 0, 0, 327687, 0, 0, 327688, 0, 0, 327689, 0, 0, 327690, 0, 0, 327691, 0, 0, 393230, 0, 0, 393231, 0, 0, 458765, 0, 0, 524300, 0, 0, 589829, 0, 0, 589830, 0, 0, 589831, 0, 0, 589832, 0, 0, 589833, 0, 0, 589834, 0, 0, 589835, 0, 0 )
