[gd_scene load_steps=4 format=2]

[ext_resource path="res://Scenes/Area2D.tscn" type="PackedScene" id=1]
[ext_resource path="res://Scenes/Player.tscn" type="PackedScene" id=2]
[ext_resource path="res://dirt.tres" type="TileSet" id=3]

[node name="Level 2" type="Node2D"]

[node name="Player" parent="." instance=ExtResource( 2 )]
position = Vector2( 121.622, 229.103 )

[node name="TileMap" type="TileMap" parent="."]
scale = Vector2( 0.5, 0.5 )
tile_set = ExtResource( 3 )
cell_size = Vector2( 128, 128 )
format = 1
tile_data = PoolIntArray( 131078, 0, 0, 131079, 0, 0, 131080, 0, 0, 131081, 0, 0, 131082, 0, 0, 131083, 0, 0, 196613, 0, 0, 262148, 0, 0, 327681, 0, 0, 327682, 0, 0, 327683, 0, 0 )

[node name="Area2D" parent="." instance=ExtResource( 1 )]
position = Vector2( 736, 96 )
sceneName = "Level 3"
